%!PS-Adobe-1.0
%%DocumentFonts: Times-Roman Times-Bold
%%Title: Image for the git-dpm documenation
%%Creator: Bernhard R. Link
%%CreationDate: 2010-01-11
%%BoundingBox: 0 0 387 210
%%EndComments
%  Copyright (C) 2010 Bernhard R. Link
%  This document is free software; you can redistribute it and/or modify
%  it under the terms of the GNU General Public License version 2 as
%  published by the Free Software Foundation.
%
%  This program is distributed in the hope that it will be useful,
%  but WITHOUT ANY WARRANTY; without even the implied warranty of
%  MERCHANTABILITY or FITNESS FOR A PARTICULAR PURPOSE.  See the
%  GNU General Public License for more details.
%
%  You should have received a copy of the GNU General Public License
%  along with this program; if not, write to the Free Software
%  Foundation, Inc.
/inch { 72 mul } def
/circle { % x y r
	dup % x y r r
	3 index % x y r r x
	add % x y r r+x
	2 index % x y r x+r y
	moveto % x y r
	0 360 arc } def
/shearfactor 0.65 def
/radius 0.3 def
/labely 3 radius 3 mul add def
/labelx 7 4 shearfactor mul add  def
/xdef { exch def } def
/setnodefont {
/Times-Roman findfont 0.5 scalefont setfont
} def
/setlabelfont {
/Times-Roman findfont 0.35 scalefont setfont
} def
/setboldlabelfont {
/Times-Bold findfont 0.35 scalefont setfont
} def
1 dict dup /colors xdef begin
	/tag { 1.0 1.0 0.0 setrgbcolor } def
	/branch { 0.0 1.0 0.0 setrgbcolor } def
	/nodeline { 0.0 setgray } def
	/upstream { 1.0 0.0 0.0 setrgbcolor } def
	/patch { 1.0 0.0 1.0 setrgbcolor } def
	/debian { 0.0 0.0 1.0 setrgbcolor } def
end
1 dict dup /textcolors xdef begin
	/branch{ 0.0 0.0 0.0 setrgbcolor } def
	/tag { 0.0 0.0 0.0 setrgbcolor } def
	/upstream { 1.0 1.0 1.0 setrgbcolor } def
	/patch { 1.0 1.0 1.0 setrgbcolor } def
	/debian { 1.0 1.0 1.0 setrgbcolor } def
end
/setcolor {
	colors exch get exec
} def
/settextcolor {
	textcolors exch get exec
} def
/calcpos { % x y
	exch 1 index % y x y
	shearfactor mul add
	radius add exch radius add
} def
/node { % color text x y
	calcpos
	2 copy /lastnodey xdef /lastnodex xdef
	0 setlinewidth
	/nodeline setcolor
	0.0 setgray
	2 copy
	newpath
	radius circle
	gsave
	3 index setcolor
	fill
	grestore
	stroke
	% color text x y
	radius 0.5 mul sub
	moveto % color text
	exch settextcolor
	setnodefont
	dup stringwidth -0.5 mul exch -0.5 mul exch rmoveto
	show
} def
/addtag {
	setlabelfont
	newpath
	0.0 setgray
	lastnodex lastnodey radius add moveto
	lastnodex labely radius 2 div sub lineto
	stroke
	newpath
	lastnodex radius 2 div sub labely moveto
	radius 2 div dup neg rlineto
	radius 2 div dup rlineto
	dup stringwidth pop
	0.2 add 0 exch rlineto
	radius neg 0 rlineto
	closepath
	gsave
		/tag setcolor
		fill
	grestore
	stroke
	gsave
		lastnodex radius 3 div add labely 0.1 add translate
		90 rotate
		0 0 moveto
		/tag settextcolor
		show
	grestore
} def
/branchboldin <<
/master [ (full) (cloned) (prepared) (updated) (tag) (rebaserecorded) (newtag) (3) ]
/upstream [ (newupstream) (upstreamrecorded) ]
/patched [ (checkout) (commit) (rebased) (1) (2) (4) (5) (6)]
>> def
/addbranch {
	dup branchboldin exch get isin
	{ setboldlabelfont } { setlabelfont } ifelse
	newpath
	0.0 setgray
	lastnodex radius add lastnodey moveto
	labelx lastnodey lineto
	stroke
	newpath
	labelx lastnodey radius 2 div sub moveto
	0 radius rlineto
	dup stringwidth pop
	0.2 add 0 rlineto
	0 radius neg rlineto
	closepath
	gsave
		/branch setcolor
		fill
	grestore
	stroke
	labelx 0.1 add lastnodey radius 3 div sub moveto
	/branch settextcolor
	show
} def
/doline {
	0.1 setlinewidth
	setcolor
	newpath
	calcpos moveto
	calcpos lineto
	stroke
} def
/MYPARAMETER where { pop } { /MYPARAMETER (full) def } ifelse
/isin {
	false exch { MYPARAMETER eq { pop true exit } if } forall
} def
/disableifin {
	exch isin not exch if
} def
/enableifin {
	exch isin exch if
} def

%%EndProlog
%%Page: image 1
gsave
0.5 inch 0.5 inch scale
[ (cloned) (prepared) (checkout) (commit) (updated) (tag)] {
0 0 4 0 /upstream doline
} disableifin
0 0 0 1 /patch doline
[ (cloned) (prepared) (checkout) ] {
0 1 1 2 /patch doline
} disableifin
[ (cloned) (prepared) (checkout) (commit) (updated) (tag) (newupstream) (upstreamrecorded) ] {
4 0 4 1 /patch doline
4 1 4 2 /patch doline
} disableifin
[ (cloned) (prepared) (checkout) (commit) (updated) (tag) (newupstream) (upstreamrecorded) (rebased) (rebaserecorded) (newtag) (1) ] {
4 1 5 2 /patch doline
} disableifin
[ (5) ] {
5 2 6 2 /patch doline
} enableifin
[ (cloned) (prepared) (checkout) (commit) (updated) (tag) (newupstream) (upstreamrecorded) (rebased) (rebaserecorded) (newtag) (1) (2) (3) (4) (5) ] {
4 0 6 1 /patch doline
6 1 6 2 /patch doline
} disableifin
[ (patches) ] {
0 1 0 3 /debian doline
} disableifin
[ (patches) (cloned) (prepared) (checkout) (commit)] {
1 2 1 3 /debian doline
0 3 1 3 /debian doline
} disableifin
[ (upstreamrecorded) (rebased) ] {
1 3 3 3 /debian doline
} enableifin
[ (patches) (cloned) (prepared) (checkout) (commit) (updated) (tag) (newupstream) (upstreamrecorded) (rebased)] {
1 3 4 3 /debian doline
4 2 4 3 /debian doline
} disableifin
[ (patches) (cloned) (prepared) (checkout) (commit) (updated) (tag) (newupstream) (upstreamrecorded) (rebased) (rebaserecorded) (newtag) (1) (2) ] {
5 2 5 3 /debian doline
4 3 5 3 /debian doline
} disableifin
[ (patches) (cloned) (prepared) (checkout) (commit) (updated) (tag) (newupstream) (upstreamrecorded) (rebased) (rebaserecorded) (newtag) (1) (2) (3) (4) (5) (6) ] {
6 2 6 3 /debian doline
5 3 6 3 /debian doline
} disableifin
/upstream (1) 0 0 node
(upstream-1) addtag
[ (cloned) (prepared) (checkout) (commit) (updated) (tag) ] {
/upstream (2) 4 0 node
} disableifin
[ (cloned) (prepared) (checkout) (commit) (updated) (tag) (newupstream) (upstreamrecorded) (rebased) (rebaserecorded) ] {
(upstream-2) addtag
} disableifin
[ (patches) (full) (cloned) ] {
(upstream) addbranch
} disableifin
/patch (A) 0 1 node
(patched-1-1) addtag
[ (cloned) (prepared) (checkout) ] {
/patch (B) 1 2 node
} disableifin
[ (cloned) (prepared) (checkout) (commit) (updated) ] {
(patched-1-2) addtag
} disableifin
[ (cloned) (prepared) (checkout) (commit) (updated) (tag) (newupstream) (upstreamrecorded) ] {
/patch (a) 4 1 node
/patch (b) 4 2 node
} disableifin
[ (cloned) (prepared) (checkout) (commit) (updated) (tag) (newupstream) (upstreamrecorded) (rebased) (rebaserecorded) ] {
(patched-2-1) addtag
} disableifin
[ (cloned) (prepared) (checkout) (commit) (updated) (tag) (newupstream) (upstreamrecorded) (rebased) (rebaserecorded) (newtag) (1) ] {
/patch (b') 5 2 node
} disableifin
[ (5) ] {
/patch (a+) 6 2 node
} enableifin
[ (cloned) (prepared) (checkout) (commit) (updated) (tag) (newupstream) (upstreamrecorded) (rebased) (rebaserecorded) (newtag) (1) (2) (3) (4) (5) ] {
/patch (a') 6 1 node
/patch (b') 6 2 node
} disableifin
[ (cloned) (prepared) (checkout) (commit) (updated) (tag) (newupstream) (upstreamrecorded) (rebased) (rebaserecorded) (newtag) (1) (2) (3) (4) (5) (6) ] {
(patched-2-2) addtag
} disableifin
[ (patches) (full) (cloned) (prepared) (updated) (tag) (newupstream) (upstreamrecorded) (rebaserecorded) (newtag) (3) ] {
(patched) addbranch
} disableifin

[ (patches) ] {
/debian () 0 3 node
(debian-1-1) addtag
} disableifin
[ (patches) (cloned) (prepared) (checkout) (commit) ] {
/debian () 1 3 node
} disableifin
[ (patches) (cloned) (prepared) (checkout) (commit) (updated) ] {
(debian-1-2) addtag
} disableifin
[ (upstreamrecorded) (rebased) ] {
/debian () 3 3 node
} enableifin
[ (patches) (cloned) (prepared) (checkout) (commit) (updated) (tag) (newupstream) (upstreamrecorded) (rebased) ] {
/debian () 4 3 node
} disableifin
[ (patches) (cloned) (prepared) (checkout) (commit) (updated) (tag) (newupstream) (upstreamrecorded) (rebased) (rebaserecorded)] {
(debian-2-1) addtag
} disableifin
[ (patches) (cloned) (prepared) (checkout) (commit) (updated) (tag) (newupstream) (upstreamrecorded) (rebased) (rebaserecorded) (newtag) (1) (2) ] {
/debian () 5 3 node
} disableifin
[ (patches) (cloned) (prepared) (checkout) (commit) (updated) (tag) (newupstream) (upstreamrecorded) (rebased) (rebaserecorded) (newtag) (1) (2) (3) (4) (5) (6)] {
/debian () 6 3 node
(debian-2-2) addtag
} disableifin
[ (patches) ] {
(master) addbranch
} disableifin

grestore
showpage
%%Trailer
